Chapter 1 Intro to R: Load, Filter & Plot: Babynames | Media Analytics With R
…
Another useful logical operator for this dataset is the ‘includes’ operator, which looks like this: %in% .

I think an example will make the best sense of how to use these operators, so let’s get started with filtering.

1.2 Filtering Data

If we just type ‘babynames’ in R, we’ll see the first 10 rows of data, organized by year, and an indication that there are nearly 2 million more rows remaining.
That’s way too much to visualize!
Let’s start by filtering for specific names: I’ll use the names of The Beatles as a starting point.

babynames %>% 
  filter(name %in% 'Ringo')

## # A tibble: 28 × 5
##     year sex   name      n       prop
##    <dbl> <chr> <chr> <int>      <dbl>
##  1  1964 M     Ringo    12 0.00000592
##  2  1965 M     Ringo    18 0.0000095 
##  3  1966 M     Ringo     8 0.0000044 
##  4  1972 M     Ringo     6 0.00000358
##  5  1974 M     Ringo     6 0.00000368
##  6  1975 M     Ringo     8 0.00000493
##  7  1976 M     Ringo    13 0.00000796
##  8  1977 M     Ringo    10 0.00000585
##  9  1978 M     Ringo    12 0.00000702
## 10  1979 M     Ringo     9 0.00000502
## # … with 18 more rows

That ‘translates’ to ‘take the babynames dataset and filter it so only values in the name column that match ’Ringo’ are included.’ The and is the pipe operator ( %>% ), and the match is the %in% operator.

If we wanted to look for more than one name, we’d change the syntax to use a ‘combine’ command ( c ), with the values comma-separated.
Let’s try that with babynames and the Beatles.

  babynames %>% 
  filter(name %in% c('Ringo', 'Paul', 'George', 'John')) 

## # A tibble: 831 × 5
##     year sex   name       n     prop
##    <dbl> <chr> <chr>  <int>    <dbl>
##  1  1880 F     John      46 0.000471
##  2  1880 F     George    26 0.000266
##  3  1880 M     John    9655 0.0815  
##  4  1880 M     George  5126 0.0433  
##  5  1880 M     Paul     301 0.00254 
##  6  1881 F     George    30 0.000303
##  7  1881 F     John      26 0.000263
##  8  1881 M     John    8769 0.0810  
##  9  1881 M     George  4664 0.0431  
## 10  1881 M     Paul     291 0.00269 
## # … with 821 more rows
…
Now that we have all of this information, we can try to answer specific questions.
Let’s start with some basic ones - try to answer them on your own if you can.

What was the most popular name in the first year of the database, 1890?

babynames %>% 
  filter(year == "1890")

## # A tibble: 2,695 × 5
##     year sex   name          n   prop
##    <dbl> <chr> <chr>     <int>  <dbl>
##  1  1890 F     Mary      12078 0.0599
##  2  1890 F     Anna       5233 0.0259
##  3  1890 F     Elizabeth  3112 0.0154
##  4  1890 F     Margaret   3100 0.0154
##  5  1890 F     Emma       2980 0.0148
##  6  1890 F     Florence   2744 0.0136
##  7  1890 F     Ethel      2718 0.0135
##  8  1890 F     Minnie     2650 0.0131
##  9  1890 F     Clara      2496 0.0124
## 10  1890 F     Bertha     2388 0.0118
## # … with 2,685 more rows
…
Note that all of our variables, or columns, are lowercase - everything is, except the babynames themselves.
R will not detect your mistake if you lowercase a name or Uppercase a Column.

Now we have a variable equal to a subset of our data, and we can see its contents by typing its name: babynames_1890.

That makes things much easier, if that’s the only year we want to look at - but we’ll have to plot our graphs differently.

1.4 Modifying Data

Let’s begin with the arrange() function, which does as it sounds - we’ll tell it to arrange in descending order of prop:

babynames_1890 %>% 
  arrange(desc(prop)) 

## # A tibble: 2,695 × 5
##     year sex   name        n   prop
##    <dbl> <chr> <chr>   <int>  <dbl>
##  1  1890 M     John     8502 0.0710
##  2  1890 M     William  7494 0.0626
##  3  1890 F     Mary    12078 0.0599
##  4  1890 M     James    5097 0.0426
##  5  1890 M     George   4458 0.0372
##  6  1890 M     Charles  4061 0.0339
##  7  1890 F     Anna     5233 0.0259
##  8  1890 M     Frank    3078 0.0257
##  9  1890 M     Joseph   2670 0.0223
## 10  1890 M     Robert   2541 0.0212
## # … with 2,685 more rows
…
What were the most popular names in 2017, the most recent year of the database?<
/li>

How would we answer this?
I find it’s easiest to write our the process in English, then translate it to R and the Tidyverse:

‘Take babynames and filter it to only include entries from 2017. Then arrange the remaining entries in descending order of proportion.’

In the Tidyverse:

babynames %>% 
  filter(year == 2017) %>% 
  arrange(desc(prop))

## # A tibble: 32,469 × 5
##     year sex   name         n    prop
##    <dbl> <chr> <chr>    <int>   <dbl>
##  1  2017 F     Emma     19738 0.0105 
##  2  2017 F     Olivia   18632 0.00994
##  3  2017 M     Liam     18728 0.00954
##  4  2017 M     Noah     18326 0.00933
##  5  2017 F     Ava      15902 0.00848
##  6  2017 F     Isabella 15100 0.00805
##  7  2017 F     Sophia   14831 0.00791
##  8  2017 M     William  14904 0.00759
##  9  2017 M     James    14232 0.00725
## 10  2017 F     Mia      13437 0.00717
## # … with 32,459 more rows
…
1.6 Mutate

While babynames has five columns, or variables, to play with, some observations require creating a calculated field of content - essentially generating a sixth column, in the case of babynames, to show something already in the data but not made clear.

Babynames does not have rankings of popular names for each year.
Could we create that column?
Sure!
When we rearrange our data in descending order of prop, we have essentially created rankings based on row number- we just need to ‘mutate’ the data frame to show it.

babynames %>% 
  filter(year == 2017) %>% 
  arrange(desc(prop)) %>% 
  mutate(rank = row_number()) 

## # A tibble: 32,469 × 6
##     year sex   name         n    prop  rank
##    <dbl> <chr> <chr>    <int>   <dbl> <int>
##  1  2017 F     Emma     19738 0.0105      1
##  2  2017 F     Olivia   18632 0.00994     2
##  3  2017 M     Liam     18728 0.00954     3
##  4  2017 M     Noah     18326 0.00933     4
##  5  2017 F     Ava      15902 0.00848     5
##  6  2017 F     Isabella 15100 0.00805     6
##  7  2017 F     Sophia   14831 0.00791     7
##  8  2017 M     William  14904 0.00759     8
##  9  2017 M     James    14232 0.00725     9
## 10  2017 F     Mia      13437 0.00717    10
## # … with 32,459 more rows
…
