Chapter 2 Manipulating Data | Media Analytics With R
…
Great. On to mutate().

2.2 Mutate

While babynames has five columns, or variables, to play with, some observations require creating a calculated field of content - essentially generating a sixth column, in the case of babynames, to show something already in the data but not made clear.

Babynames does not have rankings of popular names for each year. Could we create that column? Sure! When we rearrange our data in descending order of prop, we have essentially created rankings based on row number- we just need to ‘mutate’ the data frame to show it.

babynames %>% 
  filter(year == 2017) %>% 
  arrange(desc(prop)) %>% 
  mutate(rank = row_number()) 

## # A tibble: 32,469 × 6
##     year sex   name         n    prop  rank
##    <dbl> <chr> <chr>    <int>   <dbl> <int>
##  1  2017 F     Emma     19738 0.0105      1
##  2  2017 F     Olivia   18632 0.00994     2
##  3  2017 M     Liam     18728 0.00954     3
##  4  2017 M     Noah     18326 0.00933     4
##  5  2017 F     Ava      15902 0.00848     5
##  6  2017 F     Isabella 15100 0.00805     6
##  7  2017 F     Sophia   14831 0.00791     7
##  8  2017 M     William  14904 0.00759     8
##  9  2017 M     James    14232 0.00725     9
## 10  2017 F     Mia      13437 0.00717    10
## # … with 32,459 more rows
…
how many ‘z’ names since 2000?

babynames %>% 
  filter(year > 2000 & str_detect(name, "Z")) %>% 
  arrange(desc(prop))

## # A tibble: 13,018 × 5
##     year sex   name        n    prop
##    <dbl> <chr> <chr>   <int>   <dbl>
##  1  2001 M     Zachary 18186 0.00880
##  2  2002 M     Zachary 16622 0.00805
##  3  2003 M     Zachary 15539 0.00740
##  4  2004 M     Zachary 13711 0.00649
##  5  2005 M     Zachary 12283 0.00578
##  6  2006 M     Zachary 11005 0.00502
##  7  2007 M     Zachary 10212 0.00461
##  8  2008 M     Zachary  9226 0.00424
##  9  2012 F     Zoey     7466 0.00386
## 10  2009 M     Zachary  8078 0.00381
## # … with 13,008 more rows

Why did R only pull out the names starting with Z? Because we capitalized it. How do we get both?

    babynames %>% 
      mutate(Z = str_count(babynames$name, "[zZ]")) %>% 
      arrange(desc(prop))

## # A tibble: 1,924,665 × 6
##     year sex   name        n   prop     Z
##    <dbl> <chr> <chr>   <int>  <dbl> <int>
##  1  1880 M     John     9655 0.0815     0
##  2  1881 M     John     8769 0.0810     0
##  3  1880 M     William  9532 0.0805     0
##  4  1883 M     John     8894 0.0791     0
##  5  1881 M     William  8524 0.0787     0
##  6  1882 M     John     9557 0.0783     0
##  7  1884 M     John     9388 0.0765     0
##  8  1882 M     William  9298 0.0762     0
##  9  1886 M     John     9026 0.0758     0
## 10  1885 M     John     8756 0.0755     0
## # … with 1,924,655 more rows

Instead of arranging our data by name popularity, let’s look at the names with the most z’s in them:

    babynames %>% 
      mutate(Z = str_count(babynames$name, "[zZ]")) %>% 
      arrange(desc(Z))

## # A tibble: 1,924,665 × 6
##     year sex   name       n       prop     Z
##    <dbl> <chr> <chr>  <int>      <dbl> <int>
##  1  2010 M     Zzyzx      5 0.00000244     3
##  2  1880 F     Lizzie   388 0.00398        2
##  3  1880 F     Kizzie    13 0.000133       2
##  4  1881 F     Lizzie   396 0.00401        2
##  5  1881 F     Kizzie     9 0.0000910      2
##  6  1882 F     Lizzie   495 0.00428        2
##  7  1882 F     Kizzie     9 0.0000778      2
##  8  1882 F     Dezzie     5 0.0000432      2
##  9  1883 F     Lizzie   496 0.00413        2
## 10  1883 F     Kizzie    14 0.000117       2
## # … with 1,924,655 more rows
…
2.6 Revisiting summarize()

As mentioned in the last Chapter, summarize() is confusing. In the case of babynames, you’ll know to use it when you keep getting the same results over and over, and you want to group those names together. Let’s take a look at this issue by calculating the most common 3-letter names:

    babynames_length %>% 
      filter(length == 3) %>% 
      arrange(desc(prop))

## # A tibble: 41,274 × 6
##     year sex   name      n   prop length
##    <dbl> <chr> <chr> <int>  <dbl>  <int>
##  1  1975 F     Amy   32252 0.0207      3
##  2  1976 F     Amy   31341 0.0199      3
##  3  1974 F     Amy   29564 0.0189      3
##  4  1973 F     Amy   26964 0.0174      3
##  5  1977 F     Amy   26731 0.0163      3
##  6  1972 F     Amy   25873 0.0160      3
##  7  1880 F     Ida    1472 0.0151      3
##  8  1971 F     Amy   26238 0.0150      3
##  9  1881 F     Ida    1439 0.0146      3
## 10  1882 F     Ida    1673 0.0145      3
## # … with 41,264 more rows

We get a lot of repeated names. Time to summarize!

    babynames_length %>% 
      filter(length == 3) %>% 
      group_by(name) %>% 
      summarise(total = sum(n) ) %>% 
      arrange(desc(total))

## # A tibble: 970 × 2
##    name   total
##    <chr>  <int>
##  1 Amy   692096
##  2 Ann   469710
##  3 Joe   462099
##  4 Roy   407020
##  5 Lee   292891
##  6 Eva   263741
##  7 Ava   251052
##  8 Ian   222950
##  9 Mia   216774
## 10 Kim   214365
## # … with 960 more rows

Let’s try that again, with 2-letter names:

    babynames_length %>% 
      filter(length == 2) %>% 
      group_by(name) %>% 
      summarize(total = sum(n)) %>% 
      arrange(desc(total)) 

## # A tibble: 149 × 2
##    name   total
##    <chr>  <int>
##  1 Jo    180579
##  2 Ty     45278
##  3 Ed     26330
##  4 Al     17221
##  5 Bo     10856
##  6 Lu      4013
##  7 Cy      3418
##  8 Wm      2737
##  9 Kc      2585
## 10 An      2048
## # … with 139 more rows

What is the longest name?

    babynames_length %>% 
      arrange(desc(length))

## # A tibble: 1,924,665 × 6
##     year sex   name                n       prop length
##    <dbl> <chr> <chr>           <int>      <dbl>  <int>
##  1  1978 M     Christophermich     5 0.00000293     15
##  2  1979 M     Johnchristopher     5 0.00000279     15
##  3  1980 M     Christophermich     7 0.00000377     15
##  4  1980 M     Christopherjohn     5 0.0000027      15
##  5  1981 F     Mariadelrosario     5 0.0000028      15
##  6  1981 M     Christopherjohn     5 0.00000268     15
##  7  1982 F     Mariadelosangel     6 0.00000331     15
##  8  1982 M     Christopherjohn     6 0.00000318     15
##  9  1982 M     Christophermich     5 0.00000265     15
## 10  1983 M     Christopherjohn     8 0.00000429     15
## # … with 1,924,655 more rows

How many 15 letter names are there?

    babynames_length %>% 
      filter(length == 15) %>% 
      count(name, sort = TRUE)

## # A tibble: 34 × 2
##    name                n
##    <chr>           <int>
##  1 Christopherjohn    19
##  2 Johnchristopher    17
##  3 Christopherjame    16
##  4 Franciscojavier    16
##  5 Christophermich     8
##  6 Ryanchristopher     7
##  7 Christianjoseph     4
##  8 Christopherjose     4
##  9 Jonathanmichael     4
## 10 Mariadelosangel     4
## # … with 24 more rows
…
